{
    "success": true,
    "status": "GET_EMPLOYEES_LIST_SUCCESS",
    "data": {
        "virtual": [
            {
                "id": "1",
                "name": "Владимир",
                "workPlace": "Кремль",
                "role": "Президент",
                "dateFrom": "2019-12-31T19:45:00.511Z",
                "dateTo": "2020-01-01T11:00:00.511Z"
            },
            {
                "id": "2",
                "name": "Иван",
                "workPlace": "МГУ",
                "role": "Ректор",
                "dateFrom": "2019-06-16T18:00:00.511Z",
                "dateTo": "2019-06-17T18:00:00.511Z"
            },
            {
                "id": "3",
                "name": "Кирилл",
                "workPlace": "ООО Авто",
                "role": "Автослесарь",
                "dateFrom": "2020-06-15T08:00:00.511Z",
                "dateTo": "2020-06-15T18:00:00.511Z"
            },
            {
                "id": "4",
                "name": "Максим",
                "workPlace": "ГБУЗ ЯО",
                "role": "Врач",
                "dateFrom": "2020-06-15T02:00:00.511Z",
                "dateTo": "2020-06-15T21:15:00.511Z"
            },
            {
                "id": "5",
                "name": "Николай",
                "workPlace": "Школа №31",
                "role": "Учитель",
                "dateFrom": "2020-06-15T04:08:00.511Z",
                "dateTo": "2020-06-15T12:50:00.511Z"
            },
            {
                "id": "6",
                "name": "Евгений",
                "workPlace": "ВсеИнструменты",
                "role": "Программист",
                "dateFrom": "2020-06-14T19:10:00.511Z",
                "dateTo": "2020-06-15T05:25:00.511Z"
            },
            {
                "id": "7",
                "name": "Владимир",
                "workPlace": "Кремль",
                "role": "Президент",
                "dateFrom": "2020-06-16T14:45:00.511Z",
                "dateTo": "2020-06-16T23:00:00.511Z"
            },
            {
                "id": "8",
                "name": "Иван",
                "workPlace": "МГУ",
                "role": "Ректор",
                "dateFrom": "2020-06-16T21:00:00.511Z",
                "dateTo": "2020-06-17T20:20:20.511Z"
            },
            {
                "id": "9",
                "name": "Кирилл",
                "workPlace": "ООО Авто",
                "role": "Автослесарь",
                "dateFrom": "2020-06-15T08:00:00.511Z",
                "dateTo": "2020-06-15T18:00:00.511Z"
            },
            {
                "id": "10",
                "name": "Максим",
                "workPlace": "ГБУЗ ЯО",
                "role": "Врач",
                "dateFrom": "2020-06-15T02:00:00.511Z",
                "dateTo": "2020-06-15T21:15:00.511Z"
            },
            {
                "id": "11",
                "name": "Николай",
                "workPlace": "Школа №31",
                "role": "Учитель",
                "dateFrom": "2020-06-15T04:08:00.511Z",
                "dateTo": "2020-06-15T12:50:00.511Z"
            },
            {
                "id": "12",
                "name": "Евгений",
                "workPlace": "ВсеИнструменты",
                "role": "Программист",
                "dateFrom": "2020-06-14T19:10:00.511Z",
                "dateTo": "2020-06-15T05:25:00.511Z"
            },
            {
                "id": "13",
                "name": "Владимир",
                "workPlace": "Кремль",
                "role": "Президент",
                "dateFrom": "2020-06-16T14:45:00.511Z",
                "dateTo": "2020-06-16T23:00:00.511Z"
            },
            {
                "id": "14",
                "name": "Иван",
                "workPlace": "МГУ",
                "role": "Ректор",
                "dateFrom": "2020-06-16T21:00:00.511Z",
                "dateTo": "2020-06-17T20:20:20.511Z"
            },
            {
                "id": "15",
                "name": "Кирилл",
                "workPlace": "ООО Авто",
                "role": "Автослесарь",
                "dateFrom": "2020-06-15T08:00:00.511Z",
                "dateTo": "2020-06-15T18:00:00.511Z"
            },
            {
                "id": "16",
                "name": "Максим",
                "workPlace": "ГБУЗ ЯО",
                "role": "Врач",
                "dateFrom": "2020-06-15T02:00:00.511Z",
                "dateTo": "2020-06-15T21:15:00.511Z"
            },
            {
                "id": "17",
                "name": "Николай",
                "workPlace": "Школа №31",
                "role": "Учитель",
                "dateFrom": "2020-06-15T04:08:00.511Z",
                "dateTo": "2020-06-15T12:50:00.511Z"
            },
            {
                "id": "18",
                "name": "Евгений",
                "workPlace": "ВсеИнструменты",
                "role": "Программист",
                "dateFrom": "2020-06-14T19:10:00.511Z",
                "dateTo": "2020-06-15T05:25:00.511Z"
            },
            {
                "id": "19",
                "name": "Владимир",
                "workPlace": "Кремль",
                "role": "Президент",
                "dateFrom": "2020-06-16T14:45:00.511Z",
                "dateTo": "2020-06-16T23:00:00.511Z"
            },
            {
                "id": "20",
                "name": "Иван",
                "workPlace": "МГУ",
                "role": "Ректор",
                "dateFrom": "2020-06-16T21:00:00.511Z",
                "dateTo": "2020-06-17T20:20:20.511Z"
            },
            {
                "id": "21",
                "name": "Кирилл",
                "workPlace": "ООО Авто",
                "role": "Автослесарь",
                "dateFrom": "2020-06-15T08:00:00.511Z",
                "dateTo": "2020-06-15T18:00:00.511Z"
            },
            {
                "id": "22",
                "name": "Максим",
                "workPlace": "ГБУЗ ЯО",
                "role": "Врач",
                "dateFrom": "2020-06-15T02:00:00.511Z",
                "dateTo": "2020-06-15T21:15:00.511Z"
            },
            {
                "id": "23",
                "name": "Николай",
                "workPlace": "Школа №31",
                "role": "Учитель",
                "dateFrom": "2020-06-15T04:08:00.511Z",
                "dateTo": "2020-06-15T12:50:00.511Z"
            },
            {
                "id": "24",
                "name": "Евгений",
                "workPlace": "ВсеИнструменты",
                "role": "Программист",
                "dateFrom": "2020-06-14T19:10:00.511Z",
                "dateTo": "2020-06-15T05:25:00.511Z"
            }
        ],
        "actual": [
            {
                "id": "1",
                "name": "Владимир",
                "workPlace": "Кремль",
                "role": "Президент",
                "dateFrom": "2019-12-31T17:00:00.511Z",
                "dateTo": "2020-01-01T15:00:00.511Z"
            },
            {
                "id": "2",
                "name": "Иван",
                "workPlace": "МГУ",
                "role": "Ректор",
                "dateFrom": "2019-06-16T07:00:00.511Z",
                "dateTo": "2019-06-16T18:00:00.511Z"
            },
            {
                "id": "3",
                "name": "Кирилл",
                "workPlace": "ООО Авто",
                "role": "Автослесарь",
                "dateFrom": "2020-06-15T08:00:00.511Z",
                "dateTo": "2020-06-15T18:00:00.511Z"
            },
            {
                "id": "4",
                "name": "Максим",
                "workPlace": "ГБУЗ ЯО",
                "role": "Врач",
                "dateFrom": "2020-06-15T06:00:00.511Z",
                "dateTo": "2020-06-15T21:37:00.511Z"
            },
            {
                "id": "5",
                "name": "Николай",
                "workPlace": "Школа №31",
                "role": "Учитель",
                "dateFrom": "2020-06-15T04:25:00.511Z",
                "dateTo": "2020-06-15T12:40:00.511Z"
            },
            {
                "id": "6",
                "name": "Евгений",
                "workPlace": "ВсеИнструменты",
                "role": "Программист",
                "dateFrom": "2020-06-14T19:10:00.511Z",
                "dateTo": "2020-06-15T05:25:00.511Z"
            },
            {
                "id": "7",
                "name": "Владимир",
                "workPlace": "Кремль",
                "role": "Президент",
                "dateFrom": "2020-06-16T17:00:00.511Z",
                "dateTo": "2020-06-16T23:00:00.511Z"
            },
            {
                "id": "8",
                "name": "Иван",
                "workPlace": "МГУ",
                "role": "Ректор",
                "dateFrom": "2020-06-17T07:00:00.511Z",
                "dateTo": "2020-06-17T18:00:00.511Z"
            },
            {
                "id": "9",
                "name": "Кирилл",
                "workPlace": "ООО Авто",
                "role": "Автослесарь",
                "dateFrom": "2020-06-15T08:00:00.511Z",
                "dateTo": "2020-06-15T18:00:00.511Z"
            },
            {
                "id": "10",
                "name": "Максим",
                "workPlace": "ГБУЗ ЯО",
                "role": "Врач",
                "dateFrom": "2020-06-15T06:00:00.511Z",
                "dateTo": "2020-06-15T21:37:00.511Z"
            },
            {
                "id": "11",
                "name": "Николай",
                "workPlace": "Школа №31",
                "role": "Учитель",
                "dateFrom": "2020-06-15T04:25:00.511Z",
                "dateTo": "2020-06-15T12:40:00.511Z"
            },
            {
                "id": "12",
                "name": "Евгений",
                "workPlace": "ВсеИнструменты",
                "role": "Программист",
                "dateFrom": "2020-06-14T19:10:00.511Z",
                "dateTo": "2020-06-15T05:25:00.511Z"
            },
            {
                "id": "13",
                "name": "Владимир",
                "workPlace": "Кремль",
                "role": "Президент",
                "dateFrom": "2020-06-16T17:00:00.511Z",
                "dateTo": "2020-06-16T23:00:00.511Z"
            },
            {
                "id": "14",
                "name": "Иван",
                "workPlace": "МГУ",
                "role": "Ректор",
                "dateFrom": "2020-06-16T07:00:00.511Z",
                "dateTo": "2020-06-16T18:00:00.511Z"
            },
            {
                "id": "15",
                "name": "Кирилл",
                "workPlace": "ООО Авто",
                "role": "Автослесарь",
                "dateFrom": "2020-06-15T08:00:00.511Z",
                "dateTo": "2020-06-15T18:00:00.511Z"
            },
            {
                "id": "16",
                "name": "Максим",
                "workPlace": "ГБУЗ ЯО",
                "role": "Врач",
                "dateFrom": "2020-06-15T06:00:00.511Z",
                "dateTo": "2020-06-15T21:37:00.511Z"
            },
            {
                "id": "17",
                "name": "Николай",
                "workPlace": "Школа №31",
                "role": "Учитель",
                "dateFrom": "2020-06-15T04:25:00.511Z",
                "dateTo": "2020-06-15T12:40:00.511Z"
            },
            {
                "id": "18",
                "name": "Евгений",
                "workPlace": "ВсеИнструменты",
                "role": "Программист",
                "dateFrom": "2020-06-14T19:10:00.511Z",
                "dateTo": "2020-06-15T05:25:00.511Z"
            },
            {
                "id": "19",
                "name": "Владимир",
                "workPlace": "Кремль",
                "role": "Президент",
                "dateFrom": "2020-06-16T17:00:00.511Z",
                "dateTo": "2020-06-16T23:00:00.511Z"
            },
            {
                "id": "20",
                "name": "Иван",
                "workPlace": "МГУ",
                "role": "Ректор",
                "dateFrom": "2020-06-16T07:00:00.511Z",
                "dateTo": "2020-06-16T18:00:00.511Z"
            },
            {
                "id": "21",
                "name": "Кирилл",
                "workPlace": "ООО Авто",
                "role": "Автослесарь",
                "dateFrom": "2020-06-15T08:00:00.511Z",
                "dateTo": "2020-06-15T18:00:00.511Z"
            },
            {
                "id": "22",
                "name": "Максим",
                "workPlace": "ГБУЗ ЯО",
                "role": "Врач",
                "dateFrom": "2020-06-15T06:00:00.511Z",
                "dateTo": "2020-06-15T21:37:00.511Z"
            },
            {
                "id": "23",
                "name": "Николай",
                "workPlace": "Школа №31",
                "role": "Учитель",
                "dateFrom": "2020-06-15T04:25:00.511Z",
                "dateTo": "2020-06-15T12:40:00.511Z"
            },
            {
                "id": "24",
                "name": "Евгений",
                "workPlace": "ВсеИнструменты",
                "role": "Программист",
                "dateFrom": "2020-06-14T19:10:00.511Z",
                "dateTo": "2020-06-15T05:25:00.511Z"
            }
        ]
    }
}
